<svg width="16" height="16" viewBox="0 0 16 16" fill="none" xmlns="http://www.w3.org/2000/svg">
<path d="M11.9828 3.2768C12.6049 3.2768 13.1087 2.79802 13.1087 2.20195V1.07698C13.1087 0.480377 12.6054 0 11.9828 0C11.3602 0 10.8574 0.479844 10.8574 1.07698V2.20248C10.858 2.79802 11.3607 3.2768 11.9828 3.2768Z" fill="white"/>
<path d="M15.9827 1.86313H13.7164V2.41068C13.7164 3.31439 12.9488 4.05068 12.0024 4.05068C11.0548 4.05068 10.2889 3.31439 10.2889 2.41068V1.86313H5.71552V2.41068C5.71552 3.31439 4.94687 4.05068 4.00098 4.05068C3.05508 4.05068 2.28699 3.31492 2.28699 2.41068V1.86313L0 1.83594V15.5264H1.14377H14.8579L16 15.5232L15.9827 1.86313ZM14.8568 14.4361H1.14377V5.69015H14.8579V14.4361H14.8568Z" fill="white"/>
<path d="M3.98322 3.2768C4.60527 3.2768 5.10971 2.79802 5.10971 2.20195V1.07698C5.10971 0.479844 4.60527 0 3.98322 0C3.36117 0 2.8584 0.479844 2.8584 1.07698V2.20248C2.8584 2.79802 3.36061 3.2768 3.98322 3.2768Z" fill="white"/>
<path d="M7.51981 6.86328H5.71887V8.38385H7.51981V6.86328Z" fill="white"/>
<path d="M10.4334 6.86328H8.63074V8.38385H10.4334V6.86328Z" fill="white"/>
<path d="M13.1322 6.86328H11.3313V8.38385H13.1322V6.86328Z" fill="white"/>
<path d="M7.51981 9.38818H5.71887V10.9077H7.51981V9.38818Z" fill="white"/>
<path d="M10.4334 9.38818H8.63074V10.9077H10.4334V9.38818Z" fill="white"/>
<path d="M13.1322 9.38818H11.3313V10.9077H13.1322V9.38818Z" fill="white"/>
<path d="M7.51981 11.9634H5.71887V13.4829H7.51981V11.9634Z" fill="white"/>
<path d="M4.65822 9.38818H2.8584V10.9077H4.65822V9.38818Z" fill="white"/>
<path d="M4.65822 11.9634H2.8584V13.4829H4.65822V11.9634Z" fill="white"/>
<path d="M10.4334 11.9634H8.63074V13.4829H10.4334V11.9634Z" fill="white"/>
<path d="M13.1322 11.9634H11.3313V13.4829H13.1322V11.9634Z" fill="white"/>
</svg>
