<svg width="29" height="28" viewBox="0 0 29 28" fill="none" xmlns="http://www.w3.org/2000/svg">
<path d="M28.9612 15.2908V24.9657C28.9612 26.639 27.5431 28 25.801 28H3.16051C1.41783 28 0 26.639 0 24.9657V3.24289C0 1.56973 1.41783 0.208413 3.16051 0.208413H13.2603C12.7165 0.744191 12.3552 1.45124 12.2759 2.23675H3.16014C2.58213 2.23675 2.11191 2.6881 2.11191 3.24289V24.9657C2.11191 25.5205 2.58219 25.9719 3.16014 25.9719H25.8007C26.3787 25.9719 26.849 25.5205 26.849 24.9657V16.2349C27.6438 16.1617 28.3814 15.8333 28.9612 15.2908ZM16.6879 3.04305H23.5922L12.4165 13.7777C11.7979 14.3716 11.7979 15.3353 12.4165 15.9292C13.0349 16.5234 14.0379 16.5234 14.6563 15.9295L25.8321 5.1948V11.8268C25.8321 12.6671 26.5412 13.3481 27.4162 13.3481C27.8534 13.3481 28.2495 13.1784 28.5362 12.9027C28.8228 12.6267 29 12.2469 29 11.8268V1.52129C29.0001 0.681036 28.2913 0 27.4162 0H16.6879C15.8133 0 15.104 0.681036 15.104 1.52164C15.1037 2.3619 15.8133 3.04305 16.6879 3.04305Z" fill="#000"/>
</svg>
