<svg width="29" height="28" viewBox="0 0 29 28" fill="none" xmlns="http://www.w3.org/2000/svg">
<path d="M0.0388483 12.7092L0.0388492 3.0343C0.0388493 1.36097 1.45686 -2.4079e-06 3.19899 -2.2556e-06L25.8395 -2.763e-07C27.5822 -1.23951e-07 29 1.36097 29 3.0343L29 24.7571C29 26.4303 27.5822 27.7916 25.8395 27.7916L15.7397 27.7916C16.2835 27.2558 16.6448 26.5488 16.7241 25.7633L25.8399 25.7633C26.4179 25.7633 26.8881 25.3119 26.8881 24.7571L26.8881 3.0343C26.8881 2.47952 26.4178 2.0281 25.8399 2.0281L3.19929 2.0281C2.62134 2.0281 2.151 2.47952 2.151 3.0343L2.151 11.765C1.35624 11.8383 0.618553 12.1667 0.0388483 12.7092ZM12.3121 24.9569L5.40778 24.9569L16.5835 14.2223C17.2021 13.6284 17.2021 12.6647 16.5835 12.0708C15.9651 11.4766 14.9621 11.4766 14.3437 12.0705L3.16793 22.8052L3.16793 16.1732C3.16793 15.3329 2.45877 14.6519 1.58378 14.6519C1.14662 14.6519 0.750541 14.8216 0.463824 15.0973C0.177169 15.3733 1.07066e-06 15.7531 1.03393e-06 16.1732L1.32996e-07 26.4787C-6.09756e-05 27.319 0.708735 28 1.58378 28L12.3121 28C13.1867 28 13.896 27.319 13.896 26.4784C13.8963 25.6381 13.1867 24.9569 12.3121 24.9569Z" fill="#000"/>
</svg>
